{
  "project_info": {
    "project_number": "1031356770523",
    "firebase_url": "https://maqader-fb675.firebaseio.com",
    "project_id": "maqader-fb675",
    "storage_bucket": "maqader-fb675.appspot.com"
  },
  "client": [
    {
      "client_info": {
        "mobilesdk_app_id": "1:1031356770523:android:431f05f7f646bdede644fe",
        "android_client_info": {
          "package_name": "com.maqader.upbeatdigital"
        }
      },
      "oauth_client": [
        {
          "client_id": "1031356770523-6rh8640s2htnff6hdohudqh2c7rnjal4.apps.googleusercontent.com",
          "client_type": 1,
          "android_info": {
            "package_name": "com.maqader.upbeatdigital",
            "certificate_hash": "67c630f4f980bb760c983e606bf80a75b7d3b0a5"
          }
        },
        {
          "client_id": "1031356770523-j7viln4b3usnel89tc8vtql5pd3tvnci.apps.googleusercontent.com",
          "client_type": 3
        }
      ],
      "api_key": [
        {
          "current_key": "AIzaSyCpFVfNbo_FJi-8NYA-dOsYPvGp_podO7Y"
        }
      ],
      "services": {
        "appinvite_service": {
          "other_platform_oauth_client": [
            {
              "client_id": "1031356770523-j7viln4b3usnel89tc8vtql5pd3tvnci.apps.googleusercontent.com",
              "client_type": 3
            }
          ]
        }
      }
    }
  ],
  "configuration_version": "1"
}